{ 
    "if (.*)": [
        "Do you really think it's likely that {0}", 
        "Do you wish that {0}", 
        "What do you think about {0}", 
        "Really--if {0}"
    ], 
    "I want (.*)": [
        "What would it mean if you got {0}", 
        "Why do you want {0}", 
        "What's stopping you from getting {0}"
    ], 
    "do you think (.*)": [
        "if {0}? Absolutely.", 
        "No chance"
    ], 
    "do you remember (.*)": [
        "Did you think I would forget {0}", 
        "Why haven't you been able to forget {0}", 
        "What about {0}", 
        "Yes .. and?"
    ],
    "do you play (.*)":[
        "yes I play {0}",
        "I love {0}, do you play?",
        "I'm not able to play {0}"
    ],
    "do you (.*)": [
        "I {0}",
        "Yes I would like to {0}"
    ],
    "my name is (.*)": [
        "hello {0}, my name is DissBot",
        "{0}, is a nice name"
    ],
    "i am from (.*)":[
        "Where is {0}?",
        "is {0} a nice place?",
        "I would like to see {0}"
    ],
    "I am doing {0} today":[
        "I would like to join you with that",
        "what is {0}?"
    ],
    "can you help with (.*)":[
        "of course",
        "{0} is my speciality"
        
    ],
    "i am a (.*)":[
        "is that interesting?",
        "is {0} what you always wanted to do?"
    ],
    "can you (.*)":[
        "{0} is my speciality",
        "who can't {0}?",
        "what would I be if I couldn't {0}"
    ]


    
}